Project,Bug,TestSuite,ScoringScheme,Family,Formula,TotalDefn,KillDefn,HybridScheme,AggregationDefn,Score,ScoreWRTLoadedClasses
Chart,5,developer,first,mbfl,ochiai,tests,exact,none,max,3.35784560625902e-05,0.00572519083969466
Chart,5,developer,first,mbfl,muse,elements,passfail,none,avg,0.00250719138600674,0.427480916030534
Chart,5,developer,first,sbfl,tarantula,tests,,none,,8.39461401564756e-05,0.0143129770992366
Chart,5,developer,first,sbfl,jaccard,tests,,none,,8.39461401564756e-05,0.0143129770992366
Chart,5,developer,first,sbfl,barinel,tests,,none,,8.39461401564756e-05,0.0143129770992366
Chart,5,developer,first,sbfl,dstar2,tests,,none,,8.39461401564756e-05,0.0143129770992366
Chart,5,developer,first,sbfl,opt2,tests,,none,,8.39461401564756e-05,0.0143129770992366
Chart,5,developer,first,sbfl,ochiai,tests,,none,,8.39461401564756e-05,0.0143129770992366
Chart,11,developer,first,mbfl,ochiai,tests,exact,none,max,8.88025859313023e-05,0.0248344370860927
Chart,11,developer,first,mbfl,muse,elements,passfail,none,avg,0.00112483275512983,0.314569536423841
Chart,11,developer,first,sbfl,tarantula,tests,,none,,0.000118403447908403,0.033112582781457
Chart,11,developer,first,sbfl,jaccard,tests,,none,,0.000118403447908403,0.033112582781457
Chart,11,developer,first,sbfl,barinel,tests,,none,,0.000118403447908403,0.033112582781457
Chart,11,developer,first,sbfl,dstar2,tests,,none,,0.000118403447908403,0.033112582781457
Chart,11,developer,first,sbfl,opt2,tests,,none,,0.000118403447908403,0.033112582781457
Chart,11,developer,first,sbfl,ochiai,tests,,none,,0.000118403447908403,0.033112582781457
Chart,13,developer,first,mbfl,ochiai,tests,exact,none,max,0.000444534009815311,0.0217643644805572
Chart,13,developer,first,mbfl,muse,elements,passfail,none,avg,7.70525617013206e-05,0.00377248984329658
Chart,13,developer,first,sbfl,tarantula,tests,,none,,0.000503805211124019,0.0246662797446315
Chart,13,developer,first,sbfl,jaccard,tests,,none,,0.000503805211124019,0.0246662797446315
Chart,13,developer,first,sbfl,barinel,tests,,none,,0.000503805211124019,0.0246662797446315
Chart,13,developer,first,sbfl,dstar2,tests,,none,,0.000503805211124019,0.0246662797446315
Chart,13,developer,first,sbfl,opt2,tests,,none,,0.000503805211124019,0.0246662797446315
Chart,13,developer,first,sbfl,ochiai,tests,,none,,0.000503805211124019,0.0246662797446315
Chart,18,developer,first,mbfl,ochiai,tests,exact,none,max,3.5819184755355e-05,0.00400534045393859
Chart,18,developer,first,mbfl,muse,elements,passfail,none,avg,2.387945650357e-05,0.00267022696929239
Chart,18,developer,first,sbfl,tarantula,tests,,none,,0.000125367146643742,0.014018691588785
Chart,18,developer,first,sbfl,jaccard,tests,,none,,5.37287771330325e-05,0.00600801068090788
Chart,18,developer,first,sbfl,barinel,tests,,none,,0.000125367146643742,0.014018691588785
Chart,18,developer,first,sbfl,dstar2,tests,,none,,5.37287771330325e-05,0.00600801068090788
Chart,18,developer,first,sbfl,opt2,tests,,none,,5.37287771330325e-05,0.00600801068090788
Chart,18,developer,first,sbfl,ochiai,tests,,none,,5.37287771330325e-05,0.00600801068090788
Chart,26,developer,first,mbfl,ochiai,tests,exact,none,max,8.90993330278499e-05,0.000176906163916197
Chart,26,developer,first,mbfl,muse,elements,passfail,none,avg,4.4549666513925e-05,8.84530819580985e-05
Chart,26,developer,first,sbfl,tarantula,tests,,none,,0.00630695993075709,0.0125224291743537
Chart,26,developer,first,sbfl,jaccard,tests,,none,,0.00175016547018991,0.00347494250549673
Chart,26,developer,first,sbfl,barinel,tests,,none,,0.00630695993075709,0.0125224291743537
Chart,26,developer,first,sbfl,dstar2,tests,,none,,0.00175016547018991,0.00347494250549673
Chart,26,developer,first,sbfl,opt2,tests,,none,,0.00175016547018991,0.00347494250549673
Chart,26,developer,first,sbfl,ochiai,tests,,none,,0.00175016547018991,0.00347494250549673
Closure,21,developer,first,mbfl,ochiai,tests,exact,none,max,4.52432389634774e-05,0.000114853418324863
Closure,21,developer,first,mbfl,muse,elements,passfail,none,avg,1.13108097408693e-05,2.87133545812157e-05
Closure,21,developer,first,sbfl,tarantula,tests,,none,,4.52432389634774e-05,0.000114853418324863
Closure,21,developer,first,sbfl,jaccard,tests,,none,,4.52432389634774e-05,0.000114853418324863
Closure,21,developer,first,sbfl,barinel,tests,,none,,4.52432389634774e-05,0.000114853418324863
Closure,21,developer,first,sbfl,dstar2,tests,,none,,4.52432389634774e-05,0.000114853418324863
Closure,21,developer,first,sbfl,opt2,tests,,none,,4.52432389634774e-05,0.000114853418324863
Closure,21,developer,first,sbfl,ochiai,tests,,none,,4.52432389634774e-05,0.000114853418324863
Closure,52,developer,first,mbfl,ochiai,tests,exact,none,max,5.49251370382169e-05,0.000188522735841943
Closure,52,developer,first,mbfl,muse,elements,passfail,none,avg,0.132040029439873,0.45320865696403
Closure,52,developer,first,sbfl,tarantula,tests,,none,,5.49251370382169e-05,0.000188522735841943
Closure,52,developer,first,sbfl,jaccard,tests,,none,,5.49251370382169e-05,0.000188522735841943
Closure,52,developer,first,sbfl,barinel,tests,,none,,5.49251370382169e-05,0.000188522735841943
Closure,52,developer,first,sbfl,dstar2,tests,,none,,5.49251370382169e-05,0.000188522735841943
Closure,52,developer,first,sbfl,opt2,tests,,none,,5.49251370382169e-05,0.000188522735841943
Closure,52,developer,first,sbfl,ochiai,tests,,none,,5.49251370382169e-05,0.000188522735841943
Closure,81,developer,first,mbfl,ochiai,tests,exact,none,max,0.000146241591108511,0.00123922413793103
Closure,81,developer,first,mbfl,muse,elements,passfail,none,avg,0.0271500693057975,0.230064655172414
Closure,81,developer,first,sbfl,tarantula,tests,,none,,0.000146241591108511,0.00123922413793103
Closure,81,developer,first,sbfl,jaccard,tests,,none,,0.000146241591108511,0.00123922413793103
Closure,81,developer,first,sbfl,barinel,tests,,none,,0.000146241591108511,0.00123922413793103
Closure,81,developer,first,sbfl,dstar2,tests,,none,,0.000146241591108511,0.00123922413793103
Closure,81,developer,first,sbfl,opt2,tests,,none,,0.000146241591108511,0.00123922413793103
Closure,81,developer,first,sbfl,ochiai,tests,,none,,0.000146241591108511,0.00123922413793103
Closure,83,developer,first,mbfl,ochiai,tests,exact,none,max,5.17263675158412e-05,9.30730390674081e-05
Closure,83,developer,first,mbfl,muse,elements,passfail,none,avg,1.29315918789603e-05,2.3268259766852e-05
Closure,83,developer,first,sbfl,tarantula,tests,,none,,0.000129315918789603,0.00023268259766852
Closure,83,developer,first,sbfl,jaccard,tests,,none,,0.000129315918789603,0.00023268259766852
Closure,83,developer,first,sbfl,barinel,tests,,none,,0.000129315918789603,0.00023268259766852
Closure,83,developer,first,sbfl,dstar2,tests,,none,,0.000129315918789603,0.00023268259766852
Closure,83,developer,first,sbfl,opt2,tests,,none,,0.000129315918789603,0.00023268259766852
Closure,83,developer,first,sbfl,ochiai,tests,,none,,0.000129315918789603,0.00023268259766852
Closure,86,developer,first,mbfl,ochiai,tests,exact,none,max,1.309397546189e-05,2.81976088427701e-05
Closure,86,developer,first,mbfl,muse,elements,passfail,none,avg,1.309397546189e-05,2.81976088427701e-05
Closure,86,developer,first,sbfl,tarantula,tests,,none,,0.00020950360739024,0.000451161741484322
Closure,86,developer,first,sbfl,jaccard,tests,,none,,2.618795092378e-05,5.63952176855403e-05
Closure,86,developer,first,sbfl,barinel,tests,,none,,0.00020950360739024,0.000451161741484322
Closure,86,developer,first,sbfl,dstar2,tests,,none,,2.618795092378e-05,5.63952176855403e-05
Closure,86,developer,first,sbfl,opt2,tests,,none,,1.309397546189e-05,2.81976088427701e-05
Closure,86,developer,first,sbfl,ochiai,tests,,none,,2.618795092378e-05,5.63952176855403e-05
Lang,15,developer,first,mbfl,ochiai,tests,exact,none,max,0.000153759417764338,0.000749812546863284
Lang,15,developer,first,mbfl,muse,elements,passfail,none,avg,5.12531392547794e-05,0.000249937515621095
Lang,15,developer,first,sbfl,tarantula,tests,,none,,0.00404899800112757,0.0197450637340665
Lang,15,developer,first,sbfl,jaccard,tests,,none,,0.00261391010199375,0.0127468132966758
Lang,15,developer,first,sbfl,barinel,tests,,none,,0.00404899800112757,0.0197450637340665
Lang,15,developer,first,sbfl,dstar2,tests,,none,,0.000512531392547794,0.00249937515621095
Lang,15,developer,first,sbfl,opt2,tests,,none,,0.000512531392547794,0.00249937515621095
Lang,15,developer,first,sbfl,ochiai,tests,,none,,0.00261391010199375,0.0127468132966758
Lang,28,developer,first,mbfl,ochiai,tests,exact,none,max,0.000393125912613726,0.0654205607476635
Lang,28,developer,first,mbfl,muse,elements,passfail,none,avg,0.00129169942715938,0.214953271028037
Lang,28,developer,first,sbfl,tarantula,tests,,none,,0.000140402111647759,0.0233644859813084
Lang,28,developer,first,sbfl,jaccard,tests,,none,,0.000140402111647759,0.0233644859813084
Lang,28,developer,first,sbfl,barinel,tests,,none,,0.000140402111647759,0.0233644859813084
Lang,28,developer,first,sbfl,dstar2,tests,,none,,0.000140402111647759,0.0233644859813084
Lang,28,developer,first,sbfl,opt2,tests,,none,,0.000140402111647759,0.0233644859813084
Lang,28,developer,first,sbfl,ochiai,tests,,none,,0.000140402111647759,0.0233644859813084
Lang,41,developer,first,mbfl,ochiai,tests,exact,none,max,0.00046112167848291,0.0181818181818182
Lang,41,developer,first,mbfl,muse,elements,passfail,none,avg,0.0071473860164851,0.281818181818182
Lang,41,developer,first,sbfl,tarantula,tests,,none,,0.000403481468672546,0.0159090909090909
Lang,41,developer,first,sbfl,jaccard,tests,,none,,0.000403481468672546,0.0159090909090909
Lang,41,developer,first,sbfl,barinel,tests,,none,,0.000403481468672546,0.0159090909090909
Lang,41,developer,first,sbfl,dstar2,tests,,none,,0.000403481468672546,0.0159090909090909
Lang,41,developer,first,sbfl,opt2,tests,,none,,0.00224796818260418,0.0886363636363636
Lang,41,developer,first,sbfl,ochiai,tests,,none,,0.000403481468672546,0.0159090909090909
Lang,48,developer,first,mbfl,ochiai,tests,exact,none,max,5.48847420417124e-05,0.00268096514745308
Lang,48,developer,first,mbfl,muse,elements,passfail,none,avg,5.48847420417124e-05,0.00268096514745308
Lang,48,developer,first,sbfl,tarantula,tests,,none,,0.000109769484083425,0.00536193029490617
Lang,48,developer,first,sbfl,jaccard,tests,,none,,0.000109769484083425,0.00536193029490617
Lang,48,developer,first,sbfl,barinel,tests,,none,,0.000109769484083425,0.00536193029490617
Lang,48,developer,first,sbfl,dstar2,tests,,none,,0.000109769484083425,0.00536193029490617
Lang,48,developer,first,sbfl,opt2,tests,,none,,0.000109769484083425,0.00536193029490617
Lang,48,developer,first,sbfl,ochiai,tests,,none,,0.000109769484083425,0.00536193029490617
Lang,49,developer,first,mbfl,ochiai,tests,exact,none,max,0.000166907755647046,0.00700934579439252
Lang,49,developer,first,mbfl,muse,elements,passfail,none,avg,0.00787248247468566,0.330607476635514
Lang,49,developer,first,sbfl,tarantula,tests,,none,,0.000139089796372538,0.0058411214953271
Lang,49,developer,first,sbfl,jaccard,tests,,none,,0.000139089796372538,0.0058411214953271
Lang,49,developer,first,sbfl,barinel,tests,,none,,0.000139089796372538,0.0058411214953271
Lang,49,developer,first,sbfl,dstar2,tests,,none,,0.000139089796372538,0.0058411214953271
Lang,49,developer,first,sbfl,opt2,tests,,none,,0.000139089796372538,0.0058411214953271
Lang,49,developer,first,sbfl,ochiai,tests,,none,,0.000139089796372538,0.0058411214953271
Math,17,developer,first,mbfl,ochiai,tests,exact,none,max,0.00131250725142128,0.0490780911062907
Math,17,developer,first,mbfl,muse,elements,passfail,none,avg,0.00857117995127045,0.320498915401302
Math,17,developer,first,sbfl,tarantula,tests,,none,,0.00130525583014271,0.0488069414316703
Math,17,developer,first,sbfl,jaccard,tests,,none,,0.00130525583014271,0.0488069414316703
Math,17,developer,first,sbfl,barinel,tests,,none,,0.00130525583014271,0.0488069414316703
Math,17,developer,first,sbfl,dstar2,tests,,none,,0.00130525583014271,0.0488069414316703
Math,17,developer,first,sbfl,opt2,tests,,none,,0.00130525583014271,0.0488069414316703
Math,17,developer,first,sbfl,ochiai,tests,,none,,0.00130525583014271,0.0488069414316703
Math,22,developer,first,mbfl,ochiai,tests,exact,none,max,2.21186740592191e-05,0.000147972773009766
Math,22,developer,first,mbfl,muse,elements,passfail,none,avg,2.21186740592191e-05,0.000147972773009766
Math,22,developer,first,sbfl,tarantula,tests,,none,,2.21186740592191e-05,0.000147972773009766
Math,22,developer,first,sbfl,jaccard,tests,,none,,2.21186740592191e-05,0.000147972773009766
Math,22,developer,first,sbfl,barinel,tests,,none,,2.21186740592191e-05,0.000147972773009766
Math,22,developer,first,sbfl,dstar2,tests,,none,,2.21186740592191e-05,0.000147972773009766
Math,22,developer,first,sbfl,opt2,tests,,none,,0.000759407809366521,0.00508039854000197
Math,22,developer,first,sbfl,ochiai,tests,,none,,2.21186740592191e-05,0.000147972773009766
Math,64,developer,first,mbfl,ochiai,tests,exact,none,max,0.00200479252176801,0.0646518745218057
Math,64,developer,first,mbfl,muse,elements,passfail,none,avg,0.000355880329307931,0.0114766641162969
Math,64,developer,first,sbfl,tarantula,tests,,none,,0.000949014211487817,0.0306044376434583
Math,64,developer,first,sbfl,jaccard,tests,,none,,0.000949014211487817,0.0306044376434583
Math,64,developer,first,sbfl,barinel,tests,,none,,0.000949014211487817,0.0306044376434583
Math,64,developer,first,sbfl,dstar2,tests,,none,,0.000949014211487817,0.0306044376434583
Math,64,developer,first,sbfl,opt2,tests,,none,,0.000949014211487817,0.0306044376434583
Math,64,developer,first,sbfl,ochiai,tests,,none,,0.000949014211487817,0.0306044376434583
Math,95,developer,first,mbfl,ochiai,tests,exact,none,max,0.000175579412059797,0.00348953140578265
Math,95,developer,first,mbfl,muse,elements,passfail,none,avg,7.52483194541989e-05,0.00149551345962114
Math,95,developer,first,sbfl,tarantula,tests,,none,,0.000250827731513996,0.00498504486540379
Math,95,developer,first,sbfl,jaccard,tests,,none,,0.000250827731513996,0.00498504486540379
Math,95,developer,first,sbfl,barinel,tests,,none,,0.000250827731513996,0.00498504486540379
Math,95,developer,first,sbfl,dstar2,tests,,none,,0.000250827731513996,0.00498504486540379
Math,95,developer,first,sbfl,opt2,tests,,none,,0.000250827731513996,0.00498504486540379
Math,95,developer,first,sbfl,ochiai,tests,,none,,0.000250827731513996,0.00498504486540379
Math,106,developer,first,mbfl,ochiai,tests,exact,none,max,0.000475134621476085,0.0135135135135135
Math,106,developer,first,mbfl,muse,elements,passfail,none,avg,0.00786611762221518,0.223723723723724
Math,106,developer,first,sbfl,tarantula,tests,,none,,0.000791891035793475,0.0225225225225225
Math,106,developer,first,sbfl,jaccard,tests,,none,,0.000791891035793475,0.0225225225225225
Math,106,developer,first,sbfl,barinel,tests,,none,,0.000791891035793475,0.0225225225225225
Math,106,developer,first,sbfl,dstar2,tests,,none,,0.000791891035793475,0.0225225225225225
Math,106,developer,first,sbfl,opt2,tests,,none,,0.000791891035793475,0.0225225225225225
Math,106,developer,first,sbfl,ochiai,tests,,none,,0.000791891035793475,0.0225225225225225
Mockito,7,developer,first,mbfl,ochiai,tests,exact,none,max,0.102559398220347,0.219000979431929
Mockito,7,developer,first,mbfl,muse,elements,passfail,none,avg,0.0882487845151821,0.188442703232125
Mockito,7,developer,first,sbfl,tarantula,tests,,none,,0.00302724520686176,0.00646425073457395
Mockito,7,developer,first,sbfl,jaccard,tests,,none,,0.00302724520686176,0.00646425073457395
Mockito,7,developer,first,sbfl,barinel,tests,,none,,0.00302724520686176,0.00646425073457395
Mockito,7,developer,first,sbfl,dstar2,tests,,none,,0.00302724520686176,0.00646425073457395
Mockito,7,developer,first,sbfl,opt2,tests,,none,,0.00302724520686176,0.00646425073457395
Mockito,7,developer,first,sbfl,ochiai,tests,,none,,0.00302724520686176,0.00646425073457395
Mockito,18,developer,first,mbfl,ochiai,tests,exact,none,max,0.056427077391139,0.201733514615908
Mockito,18,developer,first,mbfl,muse,elements,passfail,none,avg,0.0558090891804526,0.199524133242692
Mockito,18,developer,first,sbfl,tarantula,tests,,none,,0.000285225328009127,0.00101971447994562
Mockito,18,developer,first,sbfl,jaccard,tests,,none,,0.000285225328009127,0.00101971447994562
Mockito,18,developer,first,sbfl,barinel,tests,,none,,0.000285225328009127,0.00101971447994562
Mockito,18,developer,first,sbfl,dstar2,tests,,none,,0.000285225328009127,0.00101971447994562
Mockito,18,developer,first,sbfl,opt2,tests,,none,,0.000285225328009127,0.00101971447994562
Mockito,18,developer,first,sbfl,ochiai,tests,,none,,0.000285225328009127,0.00101971447994562
Mockito,22,developer,first,mbfl,ochiai,tests,exact,none,max,0.000952562392836731,0.00369685767097967
Mockito,22,developer,first,mbfl,muse,elements,passfail,none,avg,0.0504858068203467,0.195933456561922
Mockito,22,developer,first,sbfl,tarantula,tests,,none,,0.00114307487140408,0.0044362292051756
Mockito,22,developer,first,sbfl,jaccard,tests,,none,,0.00114307487140408,0.0044362292051756
Mockito,22,developer,first,sbfl,barinel,tests,,none,,0.00114307487140408,0.0044362292051756
Mockito,22,developer,first,sbfl,dstar2,tests,,none,,0.00114307487140408,0.0044362292051756
Mockito,22,developer,first,sbfl,opt2,tests,,none,,0.00114307487140408,0.0044362292051756
Mockito,22,developer,first,sbfl,ochiai,tests,,none,,0.00114307487140408,0.0044362292051756
Mockito,24,developer,first,mbfl,ochiai,tests,exact,none,max,9.61538461538462e-05,0.000116090085906664
Mockito,24,developer,first,mbfl,muse,elements,passfail,none,avg,9.61538461538462e-05,0.000116090085906664
Mockito,24,developer,first,sbfl,tarantula,tests,,none,,9.61538461538462e-05,0.000116090085906664
Mockito,24,developer,first,sbfl,jaccard,tests,,none,,9.61538461538462e-05,0.000116090085906664
Mockito,24,developer,first,sbfl,barinel,tests,,none,,9.61538461538462e-05,0.000116090085906664
Mockito,24,developer,first,sbfl,dstar2,tests,,none,,9.61538461538462e-05,0.000116090085906664
Mockito,24,developer,first,sbfl,opt2,tests,,none,,9.61538461538462e-05,0.000116090085906664
Mockito,24,developer,first,sbfl,ochiai,tests,,none,,9.61538461538462e-05,0.000116090085906664
Mockito,26,developer,first,mbfl,ochiai,tests,exact,none,max,0.000683778666105618,0.000830564784053156
Mockito,26,developer,first,mbfl,muse,elements,passfail,none,avg,0.144592888701873,0.175632507027856
Mockito,26,developer,first,sbfl,tarantula,tests,,none,,0.0037870818430465,0.00460005111167902
Mockito,26,developer,first,sbfl,jaccard,tests,,none,,0.0037870818430465,0.00460005111167902
Mockito,26,developer,first,sbfl,barinel,tests,,none,,0.0037870818430465,0.00460005111167902
Mockito,26,developer,first,sbfl,dstar2,tests,,none,,0.00284031138228487,0.00345003833375926
Mockito,26,developer,first,sbfl,opt2,tests,,none,,0.00168314748579844,0.00204446716074623
Mockito,26,developer,first,sbfl,ochiai,tests,,none,,0.00284031138228487,0.00345003833375926
Time,3,developer,first,mbfl,ochiai,tests,exact,none,max,3.60139734216876e-05,8.21557673348669e-05
Time,3,developer,first,mbfl,muse,elements,passfail,none,avg,0.000252097813951813,0.000575090371344068
Time,3,developer,first,sbfl,tarantula,tests,,none,,5.40209601325314e-05,0.0001232336510023
Time,3,developer,first,sbfl,jaccard,tests,,none,,5.40209601325314e-05,0.0001232336510023
Time,3,developer,first,sbfl,barinel,tests,,none,,5.40209601325314e-05,0.0001232336510023
Time,3,developer,first,sbfl,dstar2,tests,,none,,5.40209601325314e-05,0.0001232336510023
Time,3,developer,first,sbfl,opt2,tests,,none,,5.40209601325314e-05,0.0001232336510023
Time,3,developer,first,sbfl,ochiai,tests,,none,,5.40209601325314e-05,0.0001232336510023
Time,9,developer,first,mbfl,ochiai,tests,exact,none,max,9.14377674554698e-05,0.00037397157816006
Time,9,developer,first,mbfl,muse,elements,passfail,none,avg,0.0571120295526864,0.233582647718773
Time,9,developer,first,sbfl,tarantula,tests,,none,,0.000109725320946564,0.000448765893792072
Time,9,developer,first,sbfl,jaccard,tests,,none,,0.000109725320946564,0.000448765893792072
Time,9,developer,first,sbfl,barinel,tests,,none,,0.000109725320946564,0.000448765893792072
Time,9,developer,first,sbfl,dstar2,tests,,none,,0.000109725320946564,0.000448765893792072
Time,9,developer,first,sbfl,opt2,tests,,none,,0.000109725320946564,0.000448765893792072
Time,9,developer,first,sbfl,ochiai,tests,,none,,0.000109725320946564,0.000448765893792072
Time,14,developer,first,mbfl,ochiai,tests,exact,none,max,0.00011023332720926,0.000205380981721093
Time,14,developer,first,mbfl,muse,elements,passfail,none,avg,0.000220466654418519,0.000410761963442185
Time,14,developer,first,sbfl,tarantula,tests,,none,,0.000183722212015433,0.000342301636201821
Time,14,developer,first,sbfl,jaccard,tests,,none,,0.000183722212015433,0.000342301636201821
Time,14,developer,first,sbfl,barinel,tests,,none,,0.000183722212015433,0.000342301636201821
Time,14,developer,first,sbfl,dstar2,tests,,none,,0.000183722212015433,0.000342301636201821
Time,14,developer,first,sbfl,opt2,tests,,none,,0.000146977769612346,0.000273841308961457
Time,14,developer,first,sbfl,ochiai,tests,,none,,0.000183722212015433,0.000342301636201821
Time,19,developer,first,mbfl,ochiai,tests,exact,none,max,3.68242745617911e-05,8.43597098025983e-05
Time,19,developer,first,mbfl,muse,elements,passfail,none,avg,0.000110472823685373,0.000253079129407795
Time,19,developer,first,sbfl,tarantula,tests,,none,,0.00758580055972897,0.0173781002193352
Time,19,developer,first,sbfl,jaccard,tests,,none,,0.00758580055972897,0.0173781002193352
Time,19,developer,first,sbfl,barinel,tests,,none,,0.00758580055972897,0.0173781002193352
Time,19,developer,first,sbfl,dstar2,tests,,none,,0.00758580055972897,0.0173781002193352
Time,19,developer,first,sbfl,opt2,tests,,none,,0.00758580055972897,0.0173781002193352
Time,19,developer,first,sbfl,ochiai,tests,,none,,0.00758580055972897,0.0173781002193352
Time,24,developer,first,mbfl,ochiai,tests,exact,none,max,0.00763529367946665,0.0130773156417453
Time,24,developer,first,mbfl,muse,elements,passfail,none,avg,0.258892323736452,0.443416687930595
Time,24,developer,first,sbfl,tarantula,tests,,none,,0.0102610897985027,0.0175746363868334
Time,24,developer,first,sbfl,jaccard,tests,,none,,0.0102610897985027,0.0175746363868334
Time,24,developer,first,sbfl,barinel,tests,,none,,0.0102610897985027,0.0175746363868334
Time,24,developer,first,sbfl,dstar2,tests,,none,,0.0102238444634809,0.0175108446032151
Time,24,developer,first,sbfl,opt2,tests,,none,,0.00992588178330664,0.0170005103342689
Time,24,developer,first,sbfl,ochiai,tests,,none,,0.0102238444634809,0.0175108446032151
